﻿
$$$$$$$\   $$$$$$\  $$\   $$\  $$$$$$\        $$\   $$\ $$\   $$\  $$$$$$\  $$$$$$$\  
$$  __$$\ $$  __$$\ $$$\  $$ |$$  __$$\       $$$\  $$ |$$ |  $$ |$$  __$$\ $$  __$$\ 
$$ |  $$ |$$ /  $$ |$$$$\ $$ |$$ /  \__|      $$$$\ $$ |$$ |  $$ |$$ /  $$ |$$ |  $$ |
$$ |  $$ |$$$$$$$$ |$$ $$\$$ |$$ |$$$$\       $$ $$\$$ |$$$$$$$$ |$$$$$$$$ |$$$$$$$  |
$$ |  $$ |$$  __$$ |$$ \$$$$ |$$ |\_$$ |      $$ \$$$$ |$$  __$$ |$$  __$$ |$$  ____/ 
$$ |  $$ |$$ |  $$ |$$ |\$$$ |$$ |  $$ |      $$ |\$$$ |$$ |  $$ |$$ |  $$ |$$ |      
$$$$$$$  |$$ |  $$ |$$ | \$$ |\$$$$$$  |      $$ | \$$ |$$ |  $$ |$$ |  $$ |$$ |      
\_______/ \__|  \__|\__|  \__| \______/       \__|  \__|\__|  \__|\__|  \__|\__|      
                                                                                      
                                                                                      
                                                                                      
