﻿
  _   _    _    ___     _   _  ___    _       
 | | | |  / \  |_ _|   | | | |/ _ \  / \      
 | |_| | / _ \  | |    | |_| | | | |/ _ \     
 |  _  |/ ___ \ | |    |  _  | |_| / ___ \    
 |_| |_/_/   \_\___|   |_| |_|\___/_/   \_\   
                                            
  _     ___ ____  ____      _    ______   __
 | |   |_ _| __ )|  _ \    / \  |  _ \ \ / /
 | |    | ||  _ \| |_) |  / _ \ | |_) \ V / 
 | |___ | || |_) |  _ <  / ___ \|  _ < | |  
 |_____|___|____/|_| \_\/_/   \_\_| \_\|_|  
                                            
